{
	"default_lang" : "en-gb",

	"email" : {
		"subject" : {
			"en-gb" : "New contact form submission",
			"en-us" : "New contact form submission",
			"es"    : "Nuevo formulario de contacto"
		},
		"error" : {
			"en-gb" : "Oh my! Your details failed to send: {$1}",
			"en-us" : "Doh! Your details failed to send: {$1}",
			"es"    : "Sus datos no pudieron enviar: {$1}"
		},
		"confirmation" : {
			"subject" : {
				"en-gb" : "Thanks for your details",
				"en-us" : "Thanks for your details",
				"es"    : "Gracias por tus datos"
			},
			"body" : {
				"en-gb" : "Thanks! Your details have been received and we'll get back to you soon!",
				"en-us" : "Thanks! Your details have been received and we'll get back to you soon",
				"es"    : "¡Gracias! Sus datos han sido recibidos y nos pondremos en contacto con usted pronto"
			}
		}
	},
	"form" : {
		"success" : {
			"title" : {
				"en-gb" : "Spiffing! Your details were successfully sent! We'll get back to you soon.",
				"en-us" : "Sweet! Your details were successfully sent! We'll get back to you soon.",
				"es"    : "¡Si! Sus datos han sido enviadas! Nos pondremos en contacto con usted pronto."
			},
			"button_text" : {
				"en-gb" : "Thanks!",
				"en-us" : "Thanks!",
				"es"    : "¡Gracias!"
			}
		},
		"error" : {
			"title" : {
				"en-gb" : "Hang on! Something went wrong!",
				"en-us" : "Woah! Something went wrong!",
				"es"    : "Algo salió mal!"
			},
			"required" : {
				"en-gb" : "We need your {$1}.",
				"en-us" : "We need your {$1}.",
				"es"    : "Necesitamos su {$1}."
			},
			"email" : {
				"en-gb" : "Your email address is invalid.",
				"en-us" : "Your email address is invalid.",
				"es"    : "Tu dirección de correo electrónico no es válida."
			},
			"numeric" : {
				"en-gb" : "Your {$1} should only contain numbers",
				"en-us" : "Your {$1} should only contain numbers",
				"es"    : "Su {$1} sólo debe contener números"
			},
			"honeypot" : {
				"en-gb" : "Please leave the last field empty, we're using it to stop robots using the form.",
				"en-us" : "Please leave the last field empty, we're using it to stop robots using the form.",
				"es"    : "Por favor, deje el último campo vacío, lo estamos utilizando para detener los robots usando el formulario."
			},
			"file" : {
				"size" : {
					"en-gb" : "Your file(s) exceed the {$1}mb limit, please consider using a cloud based service like <a href=\"https://www.wetransfer.com/\">wetransfer</a>.",
					"en-us" : "Your file(s) exceed the {$1}mb limit, please consider using a cloud based service like <a href=\"https://www.wetransfer.com/\">wetransfer</a>.",
					"es"    : "Su archivo (s) excede el límite {$1}mb, por favor considere el uso de un servicio basado en la nube como <a href=\"https://www.wetransfer.com/\"> wetransfer </a>."
				},
				"type" : {
					"en-gb" : "We don't allow the file type for {$1}.",
					"en-us" : "We don't allow the file type for {$1}.",
					"es"    : "No permitimos que el tipo de archivo para {$1}."
				},
				"failed" : {
					"en-gb" : "The file upload failed for {$1}.",
					"en-us" : "The file upload failed for {$1}.",
					"es"    : "La carga de archivos no para"
				},
				"server_limit" : {
					"en-gb" : "You've tried uploading a file bigger than your hosting provider has allowed in the php.ini file - please contact your hosting provider to confirm.",
					"en-us" : "You've tried uploading a file bigger than your hosting provider has allowed in the php.ini file - please contact your hosting provider to confirm.",
					"es"    : "Usted ha intentado cargar un archivo más grande que su proveedor de hosting ha permitido en el archivo php.ini - por favor póngase en contacto con su proveedor de hosting para confirmar."
				},
				"general" : {
					"en-gb" : "There was an error with the file {$1}: {$2}",
					"en-us" : "There was an error with the file {$1}: {$2}",
					"es"    : "Hubo un error con el archivo"
				}
			},
			"captcha" : {
				"empty" : {
					"en-gb" : "Please complete the CAPTCHA",
					"en-us" : "Please complete the CAPTCHA",
					"es"    : "Por favor completar el CAPTCHA"
				},
				"bot" : {
					"en-gb" : "You're Nicked Son! Google reCAPTCHA had a problem: {$1}",
					"en-us" : "FREEZE SUCKER! Google reCAPTCHA had a problem: {$1}",
					"es"    : "Google reCAPTCHA tuvo un problema: {$1}"
				},
				"empty_response" : {
					"en-gb" : "The <a target=\"new\" href=\"{$1}\">reCaptcha response from Google</a> can't be accessed by process.php<br>Your hosting provider may be blocking cURL and/or file_get_contents() – please verify this with them.<br>Please <a target=\"new\" href=\"https://codecanyon.net/item/ultimate-php-html5-ajax-contact-form-bootstrap-edition/18332006/support\">contact us</a> after you have spoken to your hosting provider",
					"en-us" : "The <a target=\"new\" href=\"{$1}\">reCaptcha response from Google</a> can't be accessed by process.php<br>Your hosting provider may be blocking cURL and/or file_get_contents() – please verify this with them.<br>Please <a target=\"new\" href=\"https://codecanyon.net/item/ultimate-php-html5-ajax-contact-form-bootstrap-edition/18332006/support\">contact us</a> after you have spoken to your hosting provider",
					"es"    : "La <a target=\"new\"href=\"{$1}\"> respuesta reCaptcha de Google </a> no puede ser accedida por process.php <br> Es posible que tu proveedor de hosting esté bloqueando cURL/file_get_contents () - por favor, verifique esto con ellos. Por favor, <a target=\"nuevo\" href=\"https://codecanyon.net/item/ultimate-php-html5-ajax-contact-form-bootstrap-edition/18332006/support\">póngase en contacto con nosotros</a> después de haber hablado con su proveedor de alojamiento"
				}
			},
			"back_link" : {
				"en-gb" : "Go <a href=\"javascript:history.back()\">back a page</a> to correct it.",
				"en-us" : "Go <a href=\"javascript:history.back()\">back a page</a> to fix it.",
				"es"    : "Ir <a href=\"javascript:history.back()\"> atrás una página </a> para corregirlo."
			}
		},
		"button_text" : {
			"en-gb" : "Sending...",
			"en-us" : "Sending...",
			"es"    : "Envío..."
		},
		"reset" : {
			"en-gb" : "Reset",
			"en-us" : "Reset",
			"es"    : "Reiniciar"
		}
	}
}
